{   
    "iot-hub-hostname": "",
    "provisioning_host": "",
    "dps-id-scope": "",
    "device-ids": [
        "test"
    ],
    "devices": {
        "test": {
            "SupportedMethods": "Maintain-test, Maintain-test",
            "Telemetry": {
                "test-schema;v1": {
                    "messageSchema": {
                        "fields": {
                            "test1": "Integer",
                            "test2": "Integer",
                            "test3": "Integer"
                        },
                        "format": "JSON",
                        "name": "test-schema;v1"
                    }
                }
            },
            "Type": "test",
            "Online": true,
            "threshold-test": 100
        }
    }
}